<?xml version="1.0" encoding="UTF-8"?>
<session version="1.0">
<refactoring comment="Delete resource &apos;pgOn/reports/db.config&apos;" deleteContents="false" description="Delete resource &apos;pgOn/reports/db.config&apos;" element1="/pgOn/reports/db.config" flags="7" id="org.eclipse.ltk.core.refactoring.delete.resources" resources="1" stamp="1370498867863"/>
</session>